{
    "nombre" : "ASIR1",
    "alumnos" : 32,
    "modulos" : [{
        "nombre" : "ISO",
        "horas" : 8,
        "profesor" : "José Antonio",
        "apoyos" : ["Ango", "Paco", "Luís"]
    },
    {
        "nombre" : "GBD",
        "horas" : 6,
        "profesor" : "Juana",
        "apoyos" : ["José Antonio", "Paco"]
    },
    {
        "nombre" : "LMSGI",
        "horas" : 4,
        "profesor" : "Ango",
        "apoyos" : []
    },
    {
        "nombre" : "FHW",
        "horas" : 3,
        "profesor" : "José Antonio",
        "apoyos" : []
    },
    {
        "nombre" : "FOL",
        "horas" : 3
    }]
}